%YAML 1.1
%TAG !u! tag:unity3d.com,2011:
--- !u!114 &11400000
MonoBehaviour:
  m_ObjectHideFlags: 0
  m_CorrespondingSourceObject: {fileID: 0}
  m_PrefabInstance: {fileID: 0}
  m_PrefabAsset: {fileID: 0}
  m_GameObject: {fileID: 0}
  m_Enabled: 1
  m_EditorHideFlags: 0
  m_Script: {fileID: 11500000, guid: a25b61a11043e764db328bd430137046, type: 3}
  m_Name: 02_UD_2
  m_EditorClassIdentifier: 
  _upgradeName: Agriculture Improvement
  _upgradeDescription: 'Better agriculture means that the people will be happy, happy
    people mean more money!

    + 0.2 Public Opinion / Months

    + 0.05 Economy
    / Months

    + 10% Money / Months'
  _price: 15000000
  _upgradeSprite: {fileID: 21300000, guid: 658b77ae3d5f758419e2648313a097e6, type: 3}
  _statEffectData: {fileID: 11400000, guid: 5aa19496cd5b79f439b24c921a41d97c, type: 2}
  _secondaryStatEffectData: {fileID: 0}
  _upgradeTier: 2
  _unlockNextTier: 0
  _openGovernmentTab: 0
