%YAML 1.1
%TAG !u! tag:unity3d.com,2011:
--- !u!114 &11400000
MonoBehaviour:
  m_ObjectHideFlags: 0
  m_CorrespondingSourceObject: {fileID: 0}
  m_PrefabInstance: {fileID: 0}
  m_PrefabAsset: {fileID: 0}
  m_GameObject: {fileID: 0}
  m_Enabled: 1
  m_EditorHideFlags: 0
  m_Script: {fileID: 11500000, guid: a25b61a11043e764db328bd430137046, type: 3}
  m_Name: 02_UD_3
  m_EditorClassIdentifier: 
  _upgradeName: Internet System
  _upgradeDescription: 'By importing a new technology from the oversea, everything
    in your country will be easier to manage but it comes with a monthly maintenance.

    +
    0.05 Public Opinion / Months

    + 0.2 Economy / Months

    + 0.05 Military
    / Months

    - 100,000 / Months'
  _price: 15000000
  _upgradeSprite: {fileID: 21300000, guid: a9f52cc97bfe9f94d93dbb4e565b9f6e, type: 3}
  _statEffectData: {fileID: 11400000, guid: 9e6eba395793b7145b6394d9f4aec619, type: 2}
  _secondaryStatEffectData: {fileID: 0}
  _upgradeTier: 2
  _unlockNextTier: 0
  _openGovernmentTab: 0
