%YAML 1.1
%TAG !u! tag:unity3d.com,2011:
--- !u!114 &11400000
MonoBehaviour:
  m_ObjectHideFlags: 0
  m_CorrespondingSourceObject: {fileID: 0}
  m_PrefabInstance: {fileID: 0}
  m_PrefabAsset: {fileID: 0}
  m_GameObject: {fileID: 0}
  m_Enabled: 1
  m_EditorHideFlags: 0
  m_Script: {fileID: 11500000, guid: b45fa23bc41f9da4898c012f9e329458, type: 3}
  m_Name: DemocracyData
  m_EditorClassIdentifier: 
  _systemName: Democracy
  _governmentSprite: {fileID: 21300000, guid: 6dcc1c43935bba24086bc9ed904c58bb, type: 3}
  _governmentPassiveStat: {fileID: 11400000, guid: c26430752f484d54d9d5dd72224b7834, type: 2}
  _hasElection: 1
  _StartingFund: 7500000
  _publicOpinionValue: 20
  _economyStrengthValue: 5
  _militaryStrengthValue: -25
