%YAML 1.1
%TAG !u! tag:unity3d.com,2011:
--- !u!114 &11400000
MonoBehaviour:
  m_ObjectHideFlags: 0
  m_CorrespondingSourceObject: {fileID: 0}
  m_PrefabInstance: {fileID: 0}
  m_PrefabAsset: {fileID: 0}
  m_GameObject: {fileID: 0}
  m_Enabled: 1
  m_EditorHideFlags: 0
  m_Script: {fileID: 11500000, guid: b8843f04ed8023a499395c477d283828, type: 3}
  m_Name: BadDistrictData
  m_EditorClassIdentifier: 
  _districtName: Bad District
  districtDescription: 
  districtEffect: 
  _districtImage: {fileID: 21300000, guid: 47ed44260defb26429a64a069a85ca3c, type: 3}
  _isResidential: 0
  _isIndustry: 0
  _isHarbour: 0
  _isCommercial: 0
  _isBadZone: 1
  _moneyBonus: -300000
  _publicOpinionBonus: -2.5
  _economyBonus: -2.5
  _militaryBonus: -2.5
  _moneyPercent: 0
  _publicOpinionPercent: 0
  _economyPercent: 0
  _militaryPercent: 0
