%YAML 1.1
%TAG !u! tag:unity3d.com,2011:
--- !u!114 &11400000
MonoBehaviour:
  m_ObjectHideFlags: 0
  m_CorrespondingSourceObject: {fileID: 0}
  m_PrefabInstance: {fileID: 0}
  m_PrefabAsset: {fileID: 0}
  m_GameObject: {fileID: 0}
  m_Enabled: 1
  m_EditorHideFlags: 0
  m_Script: {fileID: 11500000, guid: b8843f04ed8023a499395c477d283828, type: 3}
  m_Name: ResidentailDistrictData
  m_EditorClassIdentifier: 
  _districtName: Residential District
  districtDescription: 
  districtEffect: 
  _districtImage: {fileID: 21300000, guid: 812b1ea3312867846ab35af7b4f3d0c8, type: 3}
  _isResidential: 1
  _isIndustry: 0
  _isHarbour: 0
  _isCommercial: 0
  _isBadZone: 0
  _moneyBonus: 0
  _publicOpinionBonus: 0
  _economyBonus: 0
  _militaryBonus: 0
  _moneyPercent: 0.2
  _publicOpinionPercent: 0
  _economyPercent: 0
  _militaryPercent: 0
