%YAML 1.1
%TAG !u! tag:unity3d.com,2011:
--- !u!114 &11400000
MonoBehaviour:
  m_ObjectHideFlags: 0
  m_CorrespondingSourceObject: {fileID: 0}
  m_PrefabInstance: {fileID: 0}
  m_PrefabAsset: {fileID: 0}
  m_GameObject: {fileID: 0}
  m_Enabled: 1
  m_EditorHideFlags: 0
  m_Script: {fileID: 11500000, guid: 2bc034de621109144aa9a37ec132c220, type: 3}
  m_Name: 03_UD_5_Data
  m_EditorClassIdentifier: 
  _perMonth: 1
  _moneyBonus: 0
  _publicOpinionBonus: 1.5
  _economyBonus: 0.5
  _militaryBonus: 0.5
  _moneyPercent: 0
  _publicOpinionPercent: 0
  _economyPercent: 0
  _militaryPercent: 0
  _electionPercent: 0
  _eventPercent: 0
