%YAML 1.1
%TAG !u! tag:unity3d.com,2011:
--- !u!114 &11400000
MonoBehaviour:
  m_ObjectHideFlags: 0
  m_CorrespondingSourceObject: {fileID: 0}
  m_PrefabInstance: {fileID: 0}
  m_PrefabAsset: {fileID: 0}
  m_GameObject: {fileID: 0}
  m_Enabled: 1
  m_EditorHideFlags: 0
  m_Script: {fileID: 11500000, guid: a25b61a11043e764db328bd430137046, type: 3}
  m_Name: 03_UD_5
  m_EditorClassIdentifier: 
  _upgradeName: CBRN Public Training
  _upgradeDescription: 'By training your citizen to better understand the chemical
    warfare, your country will stand a chance against an attack and thus, improving
    a lot of your country structure.

    + 1.5 Public Opinion / Months

    + 0.5
    Economy / Months

    + 0.5 Military / Months

    + Slightly increase your chance
    during the election'
  _price: 25000000
  _upgradeSprite: {fileID: 21300000, guid: a9f52cc97bfe9f94d93dbb4e565b9f6e, type: 3}
  _statEffectData: {fileID: 11400000, guid: 265781b340ac634438516afb9b2f9f2f, type: 2}
  _secondaryStatEffectData: {fileID: 11400000, guid: b5cd29a4e68187c46a8c86038905d1d1, type: 2}
  _upgradeTier: 3
  _unlockNextTier: 0
  _openGovernmentTab: 0
